Project 1: Exploratory Data Analysis
…
library(tidyr)
library(dplyr)
Join1 <- inner_join(StateDepression, StateDoctor, by = "State")
print(Join1)

## # A tibble: 50 x 3
##    State       Depression NoDoctor
##    <chr>            <dbl>    <dbl>
##  1 Alabama           6.66    16.4 
##  2 Alaska            7.39    13   
##  3 Arizona           6.03    13.6 
##  4 Arkansas          8.13    15.3 
##  5 California        6.04    11.4 
##  6 Colorado          7.62    12   
##  7 Connecticut       6.84     9.90
##  8 Delaware          6.52    11.3 
##  9 Florida           6.12    16.6 
## 10 Georgia           6.72    16.6 
## # … with 40 more rows

State_Join <- inner_join(Join1, StateDeaths, by ="State")
print(State_Join)

## # A tibble: 50 x 4
##    State       Depression NoDoctor Deaths
##    <chr>            <dbl>    <dbl>  <dbl>
##  1 Alabama           6.66    16.4     804
##  2 Alaska            7.39    13       210
##  3 Arizona           6.03    13.6    1419
##  4 Arkansas          8.13    15.3     548
##  5 California        6.04    11.4    4436
##  6 Colorado          7.62    12      1312
##  7 Connecticut       6.84     9.90    435
##  8 Delaware          6.52    11.3     111
##  9 Florida           6.12    16.6    3465
## 10 Georgia           6.72    16.6    1585
## # … with 40 more rows
…
## In order to join all three datasets, the function inner_join was used. All three datasets were combined by state considering that it was the common variable among the three datasets and shows the percentage of deaths by suicide, percentage of adults who haven’t seen a doctor, and percentage of adults who have depressive episodes. After combining the datasets, one dataset was created in order to leave out unnecessary variables. Variables that were excluded were “URL,” “ID Year,” and “Slug State.” 

SortDataProj %>% arrange(desc(Deaths))

## # A tibble: 50 x 4
##    State        NoDoctor Depression Deaths
##    <chr>           <dbl>      <dbl>  <dbl>
##  1 California       11.4       6.04   4436
##  2 Texas            17.9       5.68   3891
##  3 Florida          16.6       6.12   3465
##  4 Pennsylvania     11.1       6.83   1896
##  5 Ohio             10.7       7.85   1806
##  6 New York         11.2       6.68   1705
##  7 Georgia          16.6       6.72   1585
##  8 Michigan         12.8       6.84   1472
##  9 Illinois         11.2       5.62   1439
## 10 Arizona          13.6       6.03   1419
## # … with 40 more rows
…
